module gitlab.cern.ch/iposadat/barbican

go 1.14

require (
	github.com/google/uuid v1.1.1
	github.com/gophercloud/gophercloud v0.0.0-20180928224355-bfc006765209
	github.com/gophercloud/utils v0.0.0-20180824015205-48f1dffa8dcd
	github.com/inconshreveable/mousetrap v1.0.0 // indirect
	github.com/sirupsen/logrus v1.1.0
	github.com/spf13/cobra v0.0.3
	github.com/spf13/pflag v1.0.2 // indirect
	gopkg.in/yaml.v2 v2.2.1 // indirect
)
